vMemEcc Behavior Analysis
…
Sanity checks

datP08 %>% filter(BlockStyle == "experiment") %>% 
  group_by(c_Ecc, c_CueDir, c_Change, c_StimN) %>% 
  summarise(nT = n())

## # A tibble: 24 x 5
## # Groups:   c_Ecc, c_CueDir, c_Change [12]
##    c_Ecc c_CueDir c_Change c_StimN    nT
##    <dbl>    <dbl> <lgl>      <dbl> <int>
##  1     4       -1 FALSE          2    36
##  2     4       -1 FALSE          4    36
##  3     4       -1 TRUE           2    36
##  4     4       -1 TRUE           4    36
##  5     4        1 FALSE          2    36
##  6     4        1 FALSE          4    36
##  7     4        1 TRUE           2    36
##  8     4        1 TRUE           4    36
##  9     9       -1 FALSE          2    36
## 10     9       -1 FALSE          4    36
## # ... with 14 more rows
…
